MT5000 - Data Analytics & Visualization
…
# The select() function

It is not uncommon to get datasets with hundreds or even thousands of variables. In this case, the first challenge is often **narrowing in on the variables** you are actually interested in. 

`select()` allows you to rapidly zoom in on a **useful subset** using operations based on the names of the variables. 

Again the first argument is the name of the **data frame** object to process and the following arguments are the **name of the columns to keep**.

```r
select(gapminder, country, year, pop)
```

```
## # A tibble: 1,704 × 3
##    country      year      pop
##    <fct>       <int>    <int>
##  1 Afghanistan  1952  8425333
##  2 Afghanistan  1957  9240934
##  3 Afghanistan  1962 10267083
##  4 Afghanistan  1967 11537966
##  5 Afghanistan  1972 13079460
##  6 Afghanistan  1977 14880372
##  7 Afghanistan  1982 12881816
##  8 Afghanistan  1987 13867957
##  9 Afghanistan  1992 16317921
## 10 Afghanistan  1997 22227415
## # … with 1,694 more rows
```
…
# Select and rename variables

While you are keeping only specify variables with `select()`, these variables can also be renamed on the same time. 

The **new name has to be first**, followed by the `=` sign, and then the **old name**.

Example:

```r
select(gapminder, country, population = pop, measure_year = year)
```

```
## # A tibble: 1,704 × 3
##    country     population measure_year
##    <fct>            <int>        <int>
##  1 Afghanistan    8425333         1952
##  2 Afghanistan    9240934         1957
##  3 Afghanistan   10267083         1962
##  4 Afghanistan   11537966         1967
##  5 Afghanistan   13079460         1972
##  6 Afghanistan   14880372         1977
##  7 Afghanistan   12881816         1982
##  8 Afghanistan   13867957         1987
##  9 Afghanistan   16317921         1992
## 10 Afghanistan   22227415         1997
## # … with 1,694 more rows
```
…
